{
  "project_info": {
    "project_number": "670869708483",
    "firebase_url": "https://british-84238.firebaseio.com",
    "project_id": "british-84238",
    "storage_bucket": "british-84238.appspot.com"
  },
  "client": [
    {
      "client_info": {
        "mobilesdk_app_id": "1:670869708483:android:f404a77986a5dd9a",
        "android_client_info": {
          "package_name": "it.effedodici.british"
        }
      },
      "oauth_client": [
        {
          "client_id": "670869708483-g46efa2l2hftogl6lmfdbbaooud2cfb8.apps.googleusercontent.com",
          "client_type": 3
        }
      ],
      "api_key": [
        {
          "current_key": "AIzaSyBRgCgyrUfmpB0ibbgxpsCeEPnbGm8pwAs"
        }
      ],
      "services": {
        "analytics_service": {
          "status": 1
        },
        "appinvite_service": {
          "status": 2,
          "other_platform_oauth_client": [
            {
              "client_id": "670869708483-g46efa2l2hftogl6lmfdbbaooud2cfb8.apps.googleusercontent.com",
              "client_type": 3
            },
            {
              "client_id": "670869708483-ie41dn85a6rufgaqpqb67c3bic0rgcoe.apps.googleusercontent.com",
              "client_type": 2,
              "ios_info": {
                "bundle_id": "it.effedodici.British"
              }
            }
          ]
        },
        "ads_service": {
          "status": 2
        }
      }
    }
  ],
  "configuration_version": "1"
}